\relax 
\citation{bottleneck}
\citation{hacc}
\citation{k-means--}
\citation{distancemetric}
\citation{McGregor2004}
\citation{multigran}
\citation{elmqvist2010}
\citation{wei2012}
\citation{wei2011}
\citation{hier_parallel}
\citation{outlier_parallel_coords}
\citation{group_dynamics}
\citation{weather_ensembles}
\citation{ocean_models}
\@writefile{toc}{\contentsline {section}{\numberline {1}Introduction}{1}}
\@writefile{toc}{\contentsline {section}{\numberline {2}Related Work}{1}}
\citation{binx}
\citation{dendrogram_seriation}
\citation{edgebundles}
\citation{richie}
\citation{clustergram}
\citation{eyes}
\citation{kehrer2013}
\citation{verifiablevis}
\citation{wrangling}
\citation{uncertainty_awareness}
\citation{bottleneck}
\citation{verifiablevis}
\citation{systematic}
\bibstyle{abbrv}
\bibdata{references}
\bibcite{clusteringbook}{1}
\bibcite{verifyingsims}{2}
\bibcite{albers2014}{3}
\bibcite{climate4}{4}
\bibcite{binx}{5}
\bibcite{k-means--}{6}
\bibcite{what_is_vis_for}{7}
\bibcite{bottleneck}{8}
\bibcite{dendrogram_seriation}{9}
\@writefile{toc}{\contentsline {section}{\numberline {3}Methods}{2}}
\@writefile{lof}{\contentsline {figure}{\numberline {1}{\ignorespaces Five time series plots, left, are paired using a similarity metric, then grouped into clusters. In step 0, a and b, the two most similar plots, are paired into a cluster. Then, c and d are paired into another cluster. In step 2, time series e joins the cluster that already includes c and d. Finally, these two clusters are merged to create one group. This creates a dendrogram, or a tree, that we can query at any step in order to find the desired number of clusters, or resolution, for representing the original data.\relax }}{2}}
\providecommand*\caption@xref[2]{\@setref\relax\@undefined{#1}}
\newlabel{dendrogram}{{1}{2}}
\@writefile{toc}{\contentsline {section}{\numberline {4}Conclusion}{2}}
\bibcite{ellis2007}{10}
\bibcite{elmqvist2010}{11}
\bibcite{masshistory}{12}
\bibcite{weather_ensembles}{13}
\bibcite{hier_parallel}{14}
\bibcite{hacc}{15}
\bibcite{edgebundles}{16}
\bibcite{climate0}{17}
\bibcite{systematic}{18}
\bibcite{graphical_perception}{19}
\bibcite{distancemetric}{20}
\bibcite{scivis_research_problems}{21}
\bibcite{climate5}{22}
\bibcite{richie}{23}
\bibcite{wrangling}{24}
\bibcite{kehrer2013}{25}
\bibcite{verifiablevis}{26}
\bibcite{ocean_models}{27}
\bibcite{lacey1992}{28}
\bibcite{assemblyhistory}{29}
\bibcite{climate1}{30}
\bibcite{McGregor2004}{31}
\bibcite{rcp_scenarios}{32}
\bibcite{nestedmodel}{33}
\bibcite{outlier_parallel_coords}{34}
\bibcite{group_dynamics}{35}
\bibcite{climate3}{36}
\bibcite{mine}{37}
\bibcite{uncertainty_awareness}{38}
\bibcite{scivis15}{39}
\bibcite{clustergram}{40}
\bibcite{Shan:2014}{41}
\bibcite{eyes}{42}
\bibcite{climate2}{43}
\bibcite{multigran}{44}
\bibcite{wei2011}{45}
\bibcite{wei2012}{46}
